{
    "html_title"        : "Name of the site",
    "html_description"  : "Description of the site",
    "logo_url"          : "URL the logo is linked to",
    "logo_path"         : "If present, logo image URI, for instance '/assets/logo.png'",
    "placeholder_image" : "If present, image to show when stream is offline",
    "streaming_system"  : "Type of streaming server. Options are icecast and nginx",
    "server_status_url" : "If CORS enabled, URL of the status server. If multiple servers are used, set here the url of the master server, for instance 'http://example.com:8000' or 'https://example.org/stats'",
    "icecast_servers"   : ["FQDN of the master server or the single server, for instance 'master.example.com'", "FQDN of slave servers, for instance 'slave.example.com'"],
    "nginx_server"      : "URl of the base hls mountpoint in nginx, for instance 'https://example.org/hls'",
    "live_mimetype"     : "For instance, 'video/webm' or 'application/x-mpegURL'",
    "chat_server"       : "For instance, 'https://kiwiirc.com/client/irc.freenode.net'",
    "chat_channel"      : "For instance, 'example', without the handler (#)",
    "stream_mountpoint" : "Mountpoint, for instance '/live.webm' or '/live.m3u8'"
}
